odp_meta_preview - Fire Inspections Overview
…
# Remove 'ANNUAL ' from InspectionType_Full text strings for chart and plot
tmp_inspections <- inspections
tmp_inspections$InspectionType_Full <- str_sub(tmp_inspections$InspectionType_Full, 8, -1)
tmp_inspections %>% count(InspectionType_Full, sort=TRUE)

# A tibble: 23 × 2
   InspectionType_Full      n
   <chr>                <int>
 1 Business Occupancy    1727
 2 Mercantile Occupancy  1334
 3 Assembly Occupancy     783
 4 Repair Garage          520
 5 Gas Station            321
 6 Industrial Occupancy   242
 7 Educational            127
 8 Residential            119
 9 High Rise              108
10 302 Site                72
# … with 13 more rows
# ℹ Use `print(n = ...)` to see more rows
…
inspections %>% count(PropUseType, sort=TRUE)

# A tibble: 67 × 2
   PropUseType     n
   <fct>       <int>
 1 500          2148
 2 100           592
 3 579           565
 4 UUU           524
 5 571           364
 6 599           205
 7 600           191
 8 700            89
 9 162            87
10 161            75
# … with 57 more rows
# ℹ Use `print(n = ...)` to see more rows
…
inspections %>% count(PropUseTypeDescription, sort=TRUE)

# A tibble: 67 × 2
   PropUseTypeDescription                                  n
   <fct>                                               <int>
 1 Mercantile, Business - Other                         2148
 2 Assembly - Other                                      592
 3 Motor Vehicle or Boat Sales, Services, Repair         565
 4 Undetermined                                          524
 5 Service Station, Gas Station                          364
 6 Business Office                                       205
 7 Ind., Utility, Defense, Agriculture, Mining - Other   191
 8 Manufacturing, Processing                              89
 9 Bar or Nightclub                                       87
10 Restaurant or Cafeteria                                75
# … with 57 more rows
# ℹ Use `print(n = ...)` to see more rows
…
inspections %>% distinct(PropUseType, PropUseTypeDescription)  #%>% select(PropUseType, PropUseTypeDescription)

# A tibble: 67 × 2
   PropUseType PropUseTypeDescription                             
   <fct>       <fct>                                              
 1 400         Residential - Other                                
 2 700         Manufacturing, Processing                          
 3 500         Mercantile, Business - Other                       
 4 599         Business Office                                    
 5 200         Educational - Other                                
 6 882         Parking Garage, General Vehicle                    
 7 571         Service Station, Gas Station                       
 8 600         Ind., Utility, Defense, Agriculture, Mining - Other
 9 100         Assembly - Other                                   
10 254         Day Care, In Commercial Property                   
# … with 57 more rows
# ℹ Use `print(n = ...)` to see more rows

inspections %>% arrange(PropUseType) %>% distinct(PropUseTypeDescription) %>% arrange(.by_group = TRUE)

# A tibble: 67 × 1
   PropUseTypeDescription                             
   <fct>                                              
 1 Residential - Other                                
 2 Manufacturing, Processing                          
 3 Mercantile, Business - Other                       
 4 Business Office                                    
 5 Educational - Other                                
 6 Parking Garage, General Vehicle                    
 7 Service Station, Gas Station                       
 8 Ind., Utility, Defense, Agriculture, Mining - Other
 9 Assembly - Other                                   
10 Day Care, In Commercial Property                   
# … with 57 more rows
# ℹ Use `print(n = ...)` to see more rows
